// Jest Snapshot v1, https://goo.gl/fbAQLP

exports[`ConfigPage renders 1`] = `
<DocumentFragment>
  .c1 {
  display: -webkit-box;
  display: -webkit-flex;
  display: -ms-flexbox;
  display: flex;
  -webkit-align-items: center;
  -webkit-box-align: center;
  -ms-flex-align: center;
  align-items: center;
  -webkit-box-pack: start;
  -webkit-justify-content: flex-start;
  -ms-flex-pack: start;
  justify-content: flex-start;
}

.c1 .MuiAlert-icon {
  margin-right: 12px;
}

.c1 .MuiAlert-message {
  display: -webkit-box;
  display: -webkit-flex;
  display: -ms-flexbox;
  display: flex;
  -webkit-align-items: center;
  -webkit-box-align: center;
  -ms-flex-align: center;
  align-items: center;
  -webkit-box-pack: start;
  -webkit-justify-content: flex-start;
  -ms-flex-pack: start;
  justify-content: flex-start;
  gap: 12px;
}

.c0 {
  margin: 8px;
}

.c0 .game-active {
  margin: 16px 0px;
}

.c0 .MuiCollapse-root:not(.MuiCollapse-hidden) {
  padding: 0px 16px;
}

.c0 .MuiCollapse-root.MuiCollapse-entered {
  padding-bottom: 16px;
}

.c0 .MuiCollapse-root div[role="region"] > * + * {
  margin-top: 24px;
}

.c0 dl {
  margin: 0;
  padding: 0;
  display: grid;
  grid-template-columns: min-content auto;
  grid-template-rows: min-content;
  grid-column-gap: 24px;
  grid-row-gap: 8px;
}

.c0 dl.keys {
  grid-template-columns: min-content min-content auto;
}

.c0 dl dt,
.c0 dl dd {
  margin: 0;
  padding: 0;
}

.c0 dl dt {
  white-space: nowrap;
  font-weight: bold;
}

.c0 dl dt.key {
  text-align: center;
}

.c0 dl dd.forward {
  display: -webkit-box;
  display: -webkit-flex;
  display: -ms-flexbox;
  display: flex;
  -webkit-flex-direction: column;
  -ms-flex-direction: column;
  flex-direction: column;
}

.c0 dl dd.reverse {
  display: -webkit-box;
  display: -webkit-flex;
  display: -ms-flexbox;
  display: flex;
  -webkit-flex-direction: column-reverse;
  -ms-flex-direction: column-reverse;
  flex-direction: column-reverse;
}

.c0 dl [disabled] {
  color: rgba(255,255,255,0.5);
  font-style: italic;
}

.c0 .form-actions {
  margin: 16px 0px;
}

<form
    class="c0"
  >
    <h1
      class="MuiTypography-root MuiTypography-h1"
    >
      Configuration
    </h1>
    <div
      class="MuiPaper-root MuiAlert-root MuiAlert-standardInfo c1 game-active MuiPaper-elevation0"
      role="alert"
    >
      <div
        class="MuiAlert-icon"
      >
        <svg
          aria-hidden="true"
          class="MuiSvgIcon-root MuiSvgIcon-fontSizeInherit"
          focusable="false"
          viewBox="0 0 24 24"
        >
          <path
            d="M11,9H13V7H11M12,20C7.59,20 4,16.41 4,12C4,7.59 7.59,4 12,4C16.41,4 20,7.59 20, 12C20,16.41 16.41,20 12,20M12,2A10,10 0 0,0 2,12A10,10 0 0,0 12,22A10,10 0 0,0 22,12A10, 10 0 0,0 12,2M11,17H13V11H11V17Z"
          />
        </svg>
      </div>
      <div
        class="MuiAlert-message"
      >
        <span>
          Game is not running.
        </span>
        <button
          class="MuiButtonBase-root MuiButton-root MuiButton-outlined MuiButton-outlinedPrimary MuiButton-outlinedSizeSmall MuiButton-sizeSmall"
          tabindex="0"
          type="submit"
        >
          <span
            class="MuiButton-label"
          >
            New Game
          </span>
          <span
            class="MuiTouchRipple-root"
          />
        </button>
      </div>
    </div>
    <div
      class="MuiPaper-root MuiAccordion-root Mui-expanded MuiAccordion-rounded MuiPaper-elevation1 MuiPaper-rounded"
    >
      <div
        aria-disabled="false"
        aria-expanded="true"
        class="MuiButtonBase-root MuiAccordionSummary-root Mui-expanded"
        role="button"
        tabindex="0"
      >
        <div
          class="MuiAccordionSummary-content Mui-expanded"
        >
          Environment
        </div>
      </div>
      <div
        class="MuiCollapse-root MuiCollapse-entered"
        style="min-height: 0px;"
      >
        <div
          class="MuiCollapse-wrapper"
        >
          <div
            class="MuiCollapse-wrapperInner"
          >
            <div
              role="region"
            >
              <fieldset
                class="MuiFormControl-root MuiFormControl-fullWidth"
              >
                <legend
                  class="MuiFormLabel-root"
                >
                  Chance
                </legend>
                <p
                  class="MuiFormHelperText-root"
                >
                  does my wheel slip because the dirt isn't solid (ice physics)
                </p>
                <div
                  class="MuiFormGroup-root"
                  id="game-chance"
                  role="radiogroup"
                >
                  <label
                    class="MuiFormControlLabel-root"
                  >
                    <span
                      aria-disabled="false"
                      class="MuiButtonBase-root MuiIconButton-root PrivateSwitchBase-root-1 MuiRadio-root MuiRadio-colorSecondary PrivateSwitchBase-checked-2 Mui-checked MuiIconButton-colorSecondary"
                    >
                      <span
                        class="MuiIconButton-label"
                      >
                        <input
                          checked=""
                          class="PrivateSwitchBase-input-4"
                          name="chance"
                          type="radio"
                          value="deterministic"
                        />
                        <div
                          class="PrivateRadioButtonIcon-root-5 PrivateRadioButtonIcon-checked-7"
                        >
                          <svg
                            aria-hidden="true"
                            class="MuiSvgIcon-root"
                            focusable="false"
                            viewBox="0 0 24 24"
                          >
                            <path
                              d="M12 2C6.48 2 2 6.48 2 12s4.48 10 10 10 10-4.48 10-10S17.52 2 12 2zm0 18c-4.42 0-8-3.58-8-8s3.58-8 8-8 8 3.58 8 8-3.58 8-8 8z"
                            />
                          </svg>
                          <svg
                            aria-hidden="true"
                            class="MuiSvgIcon-root PrivateRadioButtonIcon-layer-6"
                            focusable="false"
                            viewBox="0 0 24 24"
                          >
                            <path
                              d="M8.465 8.465C9.37 7.56 10.62 7 12 7C14.76 7 17 9.24 17 12C17 13.38 16.44 14.63 15.535 15.535C14.63 16.44 13.38 17 12 17C9.24 17 7 14.76 7 12C7 10.62 7.56 9.37 8.465 8.465Z"
                            />
                          </svg>
                        </div>
                      </span>
                      <span
                        class="MuiTouchRipple-root"
                      />
                    </span>
                    <span
                      class="MuiTypography-root MuiFormControlLabel-label MuiTypography-body1"
                    >
                      <span>
                        Deterministic - 
                        <span>
                          Actions are guaranteed. Everything happens exactly as described.
                        </span>
                      </span>
                    </span>
                  </label>
                  <label
                    class="MuiFormControlLabel-root"
                  >
                    <span
                      aria-disabled="false"
                      class="MuiButtonBase-root MuiIconButton-root PrivateSwitchBase-root-1 MuiRadio-root MuiRadio-colorSecondary MuiIconButton-colorSecondary"
                    >
                      <span
                        class="MuiIconButton-label"
                      >
                        <input
                          class="PrivateSwitchBase-input-4"
                          name="chance"
                          type="radio"
                          value="stochastic"
                        />
                        <div
                          class="PrivateRadioButtonIcon-root-5"
                        >
                          <svg
                            aria-hidden="true"
                            class="MuiSvgIcon-root"
                            focusable="false"
                            viewBox="0 0 24 24"
                          >
                            <path
                              d="M12 2C6.48 2 2 6.48 2 12s4.48 10 10 10 10-4.48 10-10S17.52 2 12 2zm0 18c-4.42 0-8-3.58-8-8s3.58-8 8-8 8 3.58 8 8-3.58 8-8 8z"
                            />
                          </svg>
                          <svg
                            aria-hidden="true"
                            class="MuiSvgIcon-root PrivateRadioButtonIcon-layer-6"
                            focusable="false"
                            viewBox="0 0 24 24"
                          >
                            <path
                              d="M8.465 8.465C9.37 7.56 10.62 7 12 7C14.76 7 17 9.24 17 12C17 13.38 16.44 14.63 15.535 15.535C14.63 16.44 13.38 17 12 17C9.24 17 7 14.76 7 12C7 10.62 7.56 9.37 8.465 8.465Z"
                            />
                          </svg>
                        </div>
                      </span>
                      <span
                        class="MuiTouchRipple-root"
                      />
                    </span>
                    <span
                      class="MuiTypography-root MuiFormControlLabel-label MuiTypography-body1"
                    >
                      <span>
                        Stochastic - 
                        <span>
                          Actions have upredictable outcomes. Sometimes the movement will slip or an action will fail.
                        </span>
                      </span>
                    </span>
                  </label>
                </div>
              </fieldset>
              <fieldset
                class="MuiFormControl-root MuiFormControl-fullWidth"
              >
                <legend
                  class="MuiFormLabel-root"
                >
                  Grain
                </legend>
                <p
                  class="MuiFormHelperText-root"
                >
                  digital vs analog; move in chunks vs move via velocity (w/ noop)
                </p>
                <div
                  class="MuiFormGroup-root"
                  id="game-grain"
                  role="radiogroup"
                >
                  <label
                    class="MuiFormControlLabel-root"
                  >
                    <span
                      aria-disabled="false"
                      class="MuiButtonBase-root MuiIconButton-root PrivateSwitchBase-root-1 MuiRadio-root MuiRadio-colorSecondary PrivateSwitchBase-checked-2 Mui-checked MuiIconButton-colorSecondary"
                    >
                      <span
                        class="MuiIconButton-label"
                      >
                        <input
                          checked=""
                          class="PrivateSwitchBase-input-4"
                          name="grain"
                          type="radio"
                          value="discrete"
                        />
                        <div
                          class="PrivateRadioButtonIcon-root-5 PrivateRadioButtonIcon-checked-7"
                        >
                          <svg
                            aria-hidden="true"
                            class="MuiSvgIcon-root"
                            focusable="false"
                            viewBox="0 0 24 24"
                          >
                            <path
                              d="M12 2C6.48 2 2 6.48 2 12s4.48 10 10 10 10-4.48 10-10S17.52 2 12 2zm0 18c-4.42 0-8-3.58-8-8s3.58-8 8-8 8 3.58 8 8-3.58 8-8 8z"
                            />
                          </svg>
                          <svg
                            aria-hidden="true"
                            class="MuiSvgIcon-root PrivateRadioButtonIcon-layer-6"
                            focusable="false"
                            viewBox="0 0 24 24"
                          >
                            <path
                              d="M8.465 8.465C9.37 7.56 10.62 7 12 7C14.76 7 17 9.24 17 12C17 13.38 16.44 14.63 15.535 15.535C14.63 16.44 13.38 17 12 17C9.24 17 7 14.76 7 12C7 10.62 7.56 9.37 8.465 8.465Z"
                            />
                          </svg>
                        </div>
                      </span>
                      <span
                        class="MuiTouchRipple-root"
                      />
                    </span>
                    <span
                      class="MuiTypography-root MuiFormControlLabel-label MuiTypography-body1"
                    >
                      <span>
                        Discrete - 
                        <span>
                          The world is in exactly countable blocks. Like counting apples or a "block world".
                        </span>
                      </span>
                    </span>
                  </label>
                  <label
                    class="MuiFormControlLabel-root"
                  >
                    <span
                      aria-disabled="false"
                      class="MuiButtonBase-root MuiIconButton-root PrivateSwitchBase-root-1 MuiRadio-root MuiRadio-colorSecondary MuiIconButton-colorSecondary"
                    >
                      <span
                        class="MuiIconButton-label"
                      >
                        <input
                          class="PrivateSwitchBase-input-4"
                          name="grain"
                          type="radio"
                          value="continuous"
                        />
                        <div
                          class="PrivateRadioButtonIcon-root-5"
                        >
                          <svg
                            aria-hidden="true"
                            class="MuiSvgIcon-root"
                            focusable="false"
                            viewBox="0 0 24 24"
                          >
                            <path
                              d="M12 2C6.48 2 2 6.48 2 12s4.48 10 10 10 10-4.48 10-10S17.52 2 12 2zm0 18c-4.42 0-8-3.58-8-8s3.58-8 8-8 8 3.58 8 8-3.58 8-8 8z"
                            />
                          </svg>
                          <svg
                            aria-hidden="true"
                            class="MuiSvgIcon-root PrivateRadioButtonIcon-layer-6"
                            focusable="false"
                            viewBox="0 0 24 24"
                          >
                            <path
                              d="M8.465 8.465C9.37 7.56 10.62 7 12 7C14.76 7 17 9.24 17 12C17 13.38 16.44 14.63 15.535 15.535C14.63 16.44 13.38 17 12 17C9.24 17 7 14.76 7 12C7 10.62 7.56 9.37 8.465 8.465Z"
                            />
                          </svg>
                        </div>
                      </span>
                      <span
                        class="MuiTouchRipple-root"
                      />
                    </span>
                    <span
                      class="MuiTypography-root MuiFormControlLabel-label MuiTypography-body1"
                    >
                      <span>
                        Continuous - 
                        <span>
                          The world is analog and has ranges. Like measuring a table or throwing darts.
                        </span>
                      </span>
                    </span>
                  </label>
                </div>
              </fieldset>
              <fieldset
                class="MuiFormControl-root MuiFormControl-fullWidth"
              >
                <legend
                  class="MuiFormLabel-root"
                >
                  Observable
                </legend>
                <p
                  class="MuiFormHelperText-root"
                >
                  fog of war; you remember where you were with some probability
                </p>
                <div
                  class="MuiFormGroup-root"
                  id="game-observable"
                  role="radiogroup"
                >
                  <label
                    class="MuiFormControlLabel-root"
                  >
                    <span
                      aria-disabled="false"
                      class="MuiButtonBase-root MuiIconButton-root PrivateSwitchBase-root-1 MuiRadio-root MuiRadio-colorSecondary PrivateSwitchBase-checked-2 Mui-checked MuiIconButton-colorSecondary"
                    >
                      <span
                        class="MuiIconButton-label"
                      >
                        <input
                          checked=""
                          class="PrivateSwitchBase-input-4"
                          name="observable"
                          type="radio"
                          value="fully"
                        />
                        <div
                          class="PrivateRadioButtonIcon-root-5 PrivateRadioButtonIcon-checked-7"
                        >
                          <svg
                            aria-hidden="true"
                            class="MuiSvgIcon-root"
                            focusable="false"
                            viewBox="0 0 24 24"
                          >
                            <path
                              d="M12 2C6.48 2 2 6.48 2 12s4.48 10 10 10 10-4.48 10-10S17.52 2 12 2zm0 18c-4.42 0-8-3.58-8-8s3.58-8 8-8 8 3.58 8 8-3.58 8-8 8z"
                            />
                          </svg>
                          <svg
                            aria-hidden="true"
                            class="MuiSvgIcon-root PrivateRadioButtonIcon-layer-6"
                            focusable="false"
                            viewBox="0 0 24 24"
                          >
                            <path
                              d="M8.465 8.465C9.37 7.56 10.62 7 12 7C14.76 7 17 9.24 17 12C17 13.38 16.44 14.63 15.535 15.535C14.63 16.44 13.38 17 12 17C9.24 17 7 14.76 7 12C7 10.62 7.56 9.37 8.465 8.465Z"
                            />
                          </svg>
                        </div>
                      </span>
                      <span
                        class="MuiTouchRipple-root"
                      />
                    </span>
                    <span
                      class="MuiTypography-root MuiFormControlLabel-label MuiTypography-body1"
                    >
                      <span>
                        Fully - 
                        <span>
                          Every part of the game can be scene. All information is visible.
                        </span>
                      </span>
                    </span>
                  </label>
                  <label
                    class="MuiFormControlLabel-root"
                  >
                    <span
                      aria-disabled="false"
                      class="MuiButtonBase-root MuiIconButton-root PrivateSwitchBase-root-1 MuiRadio-root MuiRadio-colorSecondary MuiIconButton-colorSecondary"
                    >
                      <span
                        class="MuiIconButton-label"
                      >
                        <input
                          class="PrivateSwitchBase-input-4"
                          name="observable"
                          type="radio"
                          value="remember"
                        />
                        <div
                          class="PrivateRadioButtonIcon-root-5"
                        >
                          <svg
                            aria-hidden="true"
                            class="MuiSvgIcon-root"
                            focusable="false"
                            viewBox="0 0 24 24"
                          >
                            <path
                              d="M12 2C6.48 2 2 6.48 2 12s4.48 10 10 10 10-4.48 10-10S17.52 2 12 2zm0 18c-4.42 0-8-3.58-8-8s3.58-8 8-8 8 3.58 8 8-3.58 8-8 8z"
                            />
                          </svg>
                          <svg
                            aria-hidden="true"
                            class="MuiSvgIcon-root PrivateRadioButtonIcon-layer-6"
                            focusable="false"
                            viewBox="0 0 24 24"
                          >
                            <path
                              d="M8.465 8.465C9.37 7.56 10.62 7 12 7C14.76 7 17 9.24 17 12C17 13.38 16.44 14.63 15.535 15.535C14.63 16.44 13.38 17 12 17C9.24 17 7 14.76 7 12C7 10.62 7.56 9.37 8.465 8.465Z"
                            />
                          </svg>
                        </div>
                      </span>
                      <span
                        class="MuiTouchRipple-root"
                      />
                    </span>
                    <span
                      class="MuiTypography-root MuiFormControlLabel-label MuiTypography-body1"
                    >
                      <span>
                        Remember - 
                        <span>
                          Fog of war. Only the immediate surroundings can be sensed, but previous states will be automatically remembered as observable.
                        </span>
                      </span>
                    </span>
                  </label>
                  <label
                    class="MuiFormControlLabel-root"
                  >
                    <span
                      aria-disabled="false"
                      class="MuiButtonBase-root MuiIconButton-root PrivateSwitchBase-root-1 MuiRadio-root MuiRadio-colorSecondary MuiIconButton-colorSecondary"
                    >
                      <span
                        class="MuiIconButton-label"
                      >
                        <input
                          class="PrivateSwitchBase-input-4"
                          name="observable"
                          type="radio"
                          value="partially"
                        />
                        <div
                          class="PrivateRadioButtonIcon-root-5"
                        >
                          <svg
                            aria-hidden="true"
                            class="MuiSvgIcon-root"
                            focusable="false"
                            viewBox="0 0 24 24"
                          >
                            <path
                              d="M12 2C6.48 2 2 6.48 2 12s4.48 10 10 10 10-4.48 10-10S17.52 2 12 2zm0 18c-4.42 0-8-3.58-8-8s3.58-8 8-8 8 3.58 8 8-3.58 8-8 8z"
                            />
                          </svg>
                          <svg
                            aria-hidden="true"
                            class="MuiSvgIcon-root PrivateRadioButtonIcon-layer-6"
                            focusable="false"
                            viewBox="0 0 24 24"
                          >
                            <path
                              d="M8.465 8.465C9.37 7.56 10.62 7 12 7C14.76 7 17 9.24 17 12C17 13.38 16.44 14.63 15.535 15.535C14.63 16.44 13.38 17 12 17C9.24 17 7 14.76 7 12C7 10.62 7.56 9.37 8.465 8.465Z"
                            />
                          </svg>
                        </div>
                      </span>
                      <span
                        class="MuiTouchRipple-root"
                      />
                    </span>
                    <span
                      class="MuiTypography-root MuiFormControlLabel-label MuiTypography-body1"
                    >
                      <span>
                        Partially - 
                        <span>
                          Only the immediate surroundings can be sensed. Some information must be intuited or sought out.
                        </span>
                      </span>
                    </span>
                  </label>
                </div>
              </fieldset>
              <fieldset
                class="MuiFormControl-root MuiFormControl-fullWidth"
              >
                <legend
                  class="MuiFormLabel-root"
                >
                  Timing
                </legend>
                <p
                  class="MuiFormHelperText-root"
                >
                  the world moves without you; or only updates when you tell it to
                </p>
                <div
                  class="MuiFormGroup-root"
                  id="game-timing"
                  role="radiogroup"
                >
                  <label
                    class="MuiFormControlLabel-root"
                  >
                    <span
                      aria-disabled="false"
                      class="MuiButtonBase-root MuiIconButton-root PrivateSwitchBase-root-1 MuiRadio-root MuiRadio-colorSecondary PrivateSwitchBase-checked-2 Mui-checked MuiIconButton-colorSecondary"
                    >
                      <span
                        class="MuiIconButton-label"
                      >
                        <input
                          checked=""
                          class="PrivateSwitchBase-input-4"
                          name="timing"
                          type="radio"
                          value="static"
                        />
                        <div
                          class="PrivateRadioButtonIcon-root-5 PrivateRadioButtonIcon-checked-7"
                        >
                          <svg
                            aria-hidden="true"
                            class="MuiSvgIcon-root"
                            focusable="false"
                            viewBox="0 0 24 24"
                          >
                            <path
                              d="M12 2C6.48 2 2 6.48 2 12s4.48 10 10 10 10-4.48 10-10S17.52 2 12 2zm0 18c-4.42 0-8-3.58-8-8s3.58-8 8-8 8 3.58 8 8-3.58 8-8 8z"
                            />
                          </svg>
                          <svg
                            aria-hidden="true"
                            class="MuiSvgIcon-root PrivateRadioButtonIcon-layer-6"
                            focusable="false"
                            viewBox="0 0 24 24"
                          >
                            <path
                              d="M8.465 8.465C9.37 7.56 10.62 7 12 7C14.76 7 17 9.24 17 12C17 13.38 16.44 14.63 15.535 15.535C14.63 16.44 13.38 17 12 17C9.24 17 7 14.76 7 12C7 10.62 7.56 9.37 8.465 8.465Z"
                            />
                          </svg>
                        </div>
                      </span>
                      <span
                        class="MuiTouchRipple-root"
                      />
                    </span>
                    <span
                      class="MuiTypography-root MuiFormControlLabel-label MuiTypography-body1"
                    >
                      <span>
                        Static - 
                        <span>
                          The world is fixed. It does not change until/unless you take action.
                        </span>
                      </span>
                    </span>
                  </label>
                  <label
                    class="MuiFormControlLabel-root"
                  >
                    <span
                      aria-disabled="false"
                      class="MuiButtonBase-root MuiIconButton-root PrivateSwitchBase-root-1 MuiRadio-root MuiRadio-colorSecondary MuiIconButton-colorSecondary"
                    >
                      <span
                        class="MuiIconButton-label"
                      >
                        <input
                          class="PrivateSwitchBase-input-4"
                          name="timing"
                          type="radio"
                          value="dynamic"
                        />
                        <div
                          class="PrivateRadioButtonIcon-root-5"
                        >
                          <svg
                            aria-hidden="true"
                            class="MuiSvgIcon-root"
                            focusable="false"
                            viewBox="0 0 24 24"
                          >
                            <path
                              d="M12 2C6.48 2 2 6.48 2 12s4.48 10 10 10 10-4.48 10-10S17.52 2 12 2zm0 18c-4.42 0-8-3.58-8-8s3.58-8 8-8 8 3.58 8 8-3.58 8-8 8z"
                            />
                          </svg>
                          <svg
                            aria-hidden="true"
                            class="MuiSvgIcon-root PrivateRadioButtonIcon-layer-6"
                            focusable="false"
                            viewBox="0 0 24 24"
                          >
                            <path
                              d="M8.465 8.465C9.37 7.56 10.62 7 12 7C14.76 7 17 9.24 17 12C17 13.38 16.44 14.63 15.535 15.535C14.63 16.44 13.38 17 12 17C9.24 17 7 14.76 7 12C7 10.62 7.56 9.37 8.465 8.465Z"
                            />
                          </svg>
                        </div>
                      </span>
                      <span
                        class="MuiTouchRipple-root"
                      />
                    </span>
                    <span
                      class="MuiTypography-root MuiFormControlLabel-label MuiTypography-body1"
                    >
                      <span>
                        Dynamic - 
                        <span>
                          The world moves forward with or without you.
                        </span>
                      </span>
                    </span>
                  </label>
                </div>
              </fieldset>
              <fieldset
                class="MuiFormControl-root MuiFormControl-fullWidth"
              >
                <legend
                  class="MuiFormLabel-root Mui-disabled"
                >
                  Apriori
                </legend>
                <p
                  class="MuiFormHelperText-root Mui-disabled"
                >
                  are you alone, or do you have to battle/coop with others (is there a wumpus?)
                </p>
                <div
                  class="MuiFormGroup-root"
                  id="game-apriori"
                  role="radiogroup"
                >
                  <label
                    class="MuiFormControlLabel-root Mui-disabled"
                  >
                    <span
                      aria-disabled="true"
                      class="MuiButtonBase-root MuiIconButton-root PrivateSwitchBase-root-1 MuiRadio-root MuiRadio-colorSecondary PrivateSwitchBase-checked-2 Mui-checked PrivateSwitchBase-disabled-3 Mui-disabled MuiIconButton-colorSecondary Mui-disabled Mui-disabled"
                      tabindex="-1"
                    >
                      <span
                        class="MuiIconButton-label"
                      >
                        <input
                          checked=""
                          class="PrivateSwitchBase-input-4"
                          disabled=""
                          name="apriori"
                          type="radio"
                          value="known"
                        />
                        <div
                          class="PrivateRadioButtonIcon-root-5 PrivateRadioButtonIcon-checked-7"
                        >
                          <svg
                            aria-hidden="true"
                            class="MuiSvgIcon-root"
                            focusable="false"
                            viewBox="0 0 24 24"
                          >
                            <path
                              d="M12 2C6.48 2 2 6.48 2 12s4.48 10 10 10 10-4.48 10-10S17.52 2 12 2zm0 18c-4.42 0-8-3.58-8-8s3.58-8 8-8 8 3.58 8 8-3.58 8-8 8z"
                            />
                          </svg>
                          <svg
                            aria-hidden="true"
                            class="MuiSvgIcon-root PrivateRadioButtonIcon-layer-6"
                            focusable="false"
                            viewBox="0 0 24 24"
                          >
                            <path
                              d="M8.465 8.465C9.37 7.56 10.62 7 12 7C14.76 7 17 9.24 17 12C17 13.38 16.44 14.63 15.535 15.535C14.63 16.44 13.38 17 12 17C9.24 17 7 14.76 7 12C7 10.62 7.56 9.37 8.465 8.465Z"
                            />
                          </svg>
                        </div>
                      </span>
                    </span>
                    <span
                      class="MuiTypography-root MuiFormControlLabel-label Mui-disabled MuiTypography-body1"
                    >
                      <span>
                        Known - 
                        <span>
                          Before you start, you know all the rules: Actions you can take, how to win, how to lose, all set peices in the game.
                        </span>
                      </span>
                    </span>
                  </label>
                  <label
                    class="MuiFormControlLabel-root Mui-disabled"
                  >
                    <span
                      aria-disabled="true"
                      class="MuiButtonBase-root MuiIconButton-root PrivateSwitchBase-root-1 MuiRadio-root MuiRadio-colorSecondary PrivateSwitchBase-disabled-3 Mui-disabled MuiIconButton-colorSecondary Mui-disabled Mui-disabled"
                      tabindex="-1"
                    >
                      <span
                        class="MuiIconButton-label"
                      >
                        <input
                          class="PrivateSwitchBase-input-4"
                          disabled=""
                          name="apriori"
                          type="radio"
                          value="unknown"
                        />
                        <div
                          class="PrivateRadioButtonIcon-root-5"
                        >
                          <svg
                            aria-hidden="true"
                            class="MuiSvgIcon-root"
                            focusable="false"
                            viewBox="0 0 24 24"
                          >
                            <path
                              d="M12 2C6.48 2 2 6.48 2 12s4.48 10 10 10 10-4.48 10-10S17.52 2 12 2zm0 18c-4.42 0-8-3.58-8-8s3.58-8 8-8 8 3.58 8 8-3.58 8-8 8z"
                            />
                          </svg>
                          <svg
                            aria-hidden="true"
                            class="MuiSvgIcon-root PrivateRadioButtonIcon-layer-6"
                            focusable="false"
                            viewBox="0 0 24 24"
                          >
                            <path
                              d="M8.465 8.465C9.37 7.56 10.62 7 12 7C14.76 7 17 9.24 17 12C17 13.38 16.44 14.63 15.535 15.535C14.63 16.44 13.38 17 12 17C9.24 17 7 14.76 7 12C7 10.62 7.56 9.37 8.465 8.465Z"
                            />
                          </svg>
                        </div>
                      </span>
                    </span>
                    <span
                      class="MuiTypography-root MuiFormControlLabel-label Mui-disabled MuiTypography-body1"
                    >
                      <span>
                        Unknown - 
                        <span>
                          You do not know the rules the world.
                        </span>
                      </span>
                    </span>
                  </label>
                </div>
              </fieldset>
              <fieldset
                class="MuiFormControl-root MuiFormControl-fullWidth"
              >
                <legend
                  class="MuiFormLabel-root"
                >
                  Agents
                </legend>
                <p
                  class="MuiFormHelperText-root"
                >
                  how much do you know about the world before you start?
                </p>
                <div
                  class="MuiFormGroup-root"
                  id="game-agents"
                  role="radiogroup"
                >
                  <label
                    class="MuiFormControlLabel-root"
                  >
                    <span
                      aria-disabled="false"
                      class="MuiButtonBase-root MuiIconButton-root PrivateSwitchBase-root-1 MuiRadio-root MuiRadio-colorSecondary PrivateSwitchBase-checked-2 Mui-checked MuiIconButton-colorSecondary"
                    >
                      <span
                        class="MuiIconButton-label"
                      >
                        <input
                          checked=""
                          class="PrivateSwitchBase-input-4"
                          name="agents"
                          type="radio"
                          value="single"
                        />
                        <div
                          class="PrivateRadioButtonIcon-root-5 PrivateRadioButtonIcon-checked-7"
                        >
                          <svg
                            aria-hidden="true"
                            class="MuiSvgIcon-root"
                            focusable="false"
                            viewBox="0 0 24 24"
                          >
                            <path
                              d="M12 2C6.48 2 2 6.48 2 12s4.48 10 10 10 10-4.48 10-10S17.52 2 12 2zm0 18c-4.42 0-8-3.58-8-8s3.58-8 8-8 8 3.58 8 8-3.58 8-8 8z"
                            />
                          </svg>
                          <svg
                            aria-hidden="true"
                            class="MuiSvgIcon-root PrivateRadioButtonIcon-layer-6"
                            focusable="false"
                            viewBox="0 0 24 24"
                          >
                            <path
                              d="M8.465 8.465C9.37 7.56 10.62 7 12 7C14.76 7 17 9.24 17 12C17 13.38 16.44 14.63 15.535 15.535C14.63 16.44 13.38 17 12 17C9.24 17 7 14.76 7 12C7 10.62 7.56 9.37 8.465 8.465Z"
                            />
                          </svg>
                        </div>
                      </span>
                      <span
                        class="MuiTouchRipple-root"
                      />
                    </span>
                    <span
                      class="MuiTypography-root MuiFormControlLabel-label MuiTypography-body1"
                    >
                      <span>
                        Single - 
                        <span>
                          You are alone in the game. There are other peices that can act, but they follow simple rules.
                        </span>
                      </span>
                    </span>
                  </label>
                  <label
                    class="MuiFormControlLabel-root"
                  >
                    <span
                      aria-disabled="false"
                      class="MuiButtonBase-root MuiIconButton-root PrivateSwitchBase-root-1 MuiRadio-root MuiRadio-colorSecondary MuiIconButton-colorSecondary"
                    >
                      <span
                        class="MuiIconButton-label"
                      >
                        <input
                          class="PrivateSwitchBase-input-4"
                          name="agents"
                          type="radio"
                          value="multiple"
                        />
                        <div
                          class="PrivateRadioButtonIcon-root-5"
                        >
                          <svg
                            aria-hidden="true"
                            class="MuiSvgIcon-root"
                            focusable="false"
                            viewBox="0 0 24 24"
                          >
                            <path
                              d="M12 2C6.48 2 2 6.48 2 12s4.48 10 10 10 10-4.48 10-10S17.52 2 12 2zm0 18c-4.42 0-8-3.58-8-8s3.58-8 8-8 8 3.58 8 8-3.58 8-8 8z"
                            />
                          </svg>
                          <svg
                            aria-hidden="true"
                            class="MuiSvgIcon-root PrivateRadioButtonIcon-layer-6"
                            focusable="false"
                            viewBox="0 0 24 24"
                          >
                            <path
                              d="M8.465 8.465C9.37 7.56 10.62 7 12 7C14.76 7 17 9.24 17 12C17 13.38 16.44 14.63 15.535 15.535C14.63 16.44 13.38 17 12 17C9.24 17 7 14.76 7 12C7 10.62 7.56 9.37 8.465 8.465Z"
                            />
                          </svg>
                        </div>
                      </span>
                      <span
                        class="MuiTouchRipple-root"
                      />
                    </span>
                    <span
                      class="MuiTypography-root MuiFormControlLabel-label MuiTypography-body1"
                    >
                      <span>
                        Multiple - 
                        <span>
                          Theory of mind. You are with other agents in the world. They may work with you or work against you.
                        </span>
                      </span>
                    </span>
                  </label>
                </div>
              </fieldset>
              <fieldset
                class="MuiFormControl-root MuiFormControl-fullWidth"
              >
                <legend
                  class="MuiFormLabel-root Mui-disabled"
                >
                  Statefulness
                </legend>
                <p
                  class="MuiFormHelperText-root Mui-disabled"
                >
                  are decision related? sorting marbles vs solving a maze (a maze is sequential by definition)
                </p>
                <div
                  class="MuiFormGroup-root"
                  id="game-statefulness"
                  role="radiogroup"
                >
                  <label
                    class="MuiFormControlLabel-root Mui-disabled"
                  >
                    <span
                      aria-disabled="true"
                      class="MuiButtonBase-root MuiIconButton-root PrivateSwitchBase-root-1 MuiRadio-root MuiRadio-colorSecondary PrivateSwitchBase-disabled-3 Mui-disabled MuiIconButton-colorSecondary Mui-disabled Mui-disabled"
                      tabindex="-1"
                    >
                      <span
                        class="MuiIconButton-label"
                      >
                        <input
                          class="PrivateSwitchBase-input-4"
                          disabled=""
                          name="statefulness"
                          type="radio"
                          value="episodic"
                        />
                        <div
                          class="PrivateRadioButtonIcon-root-5"
                        >
                          <svg
                            aria-hidden="true"
                            class="MuiSvgIcon-root"
                            focusable="false"
                            viewBox="0 0 24 24"
                          >
                            <path
                              d="M12 2C6.48 2 2 6.48 2 12s4.48 10 10 10 10-4.48 10-10S17.52 2 12 2zm0 18c-4.42 0-8-3.58-8-8s3.58-8 8-8 8 3.58 8 8-3.58 8-8 8z"
                            />
                          </svg>
                          <svg
                            aria-hidden="true"
                            class="MuiSvgIcon-root PrivateRadioButtonIcon-layer-6"
                            focusable="false"
                            viewBox="0 0 24 24"
                          >
                            <path
                              d="M8.465 8.465C9.37 7.56 10.62 7 12 7C14.76 7 17 9.24 17 12C17 13.38 16.44 14.63 15.535 15.535C14.63 16.44 13.38 17 12 17C9.24 17 7 14.76 7 12C7 10.62 7.56 9.37 8.465 8.465Z"
                            />
                          </svg>
                        </div>
                      </span>
                    </span>
                    <span
                      class="MuiTypography-root MuiFormControlLabel-label Mui-disabled MuiTypography-body1"
                    >
                      <strike>
                        Episodic - 
                        <span>
                          Each "epoch" is fully independent. Sorting marbles does not require tracking state. Assess, act, assess, act.
                        </span>
                      </strike>
                    </span>
                  </label>
                  <label
                    class="MuiFormControlLabel-root Mui-disabled"
                  >
                    <span
                      aria-disabled="true"
                      class="MuiButtonBase-root MuiIconButton-root PrivateSwitchBase-root-1 MuiRadio-root MuiRadio-colorSecondary PrivateSwitchBase-checked-2 Mui-checked PrivateSwitchBase-disabled-3 Mui-disabled MuiIconButton-colorSecondary Mui-disabled Mui-disabled"
                      tabindex="-1"
                    >
                      <span
                        class="MuiIconButton-label"
                      >
                        <input
                          checked=""
                          class="PrivateSwitchBase-input-4"
                          disabled=""
                          name="statefulness"
                          type="radio"
                          value="sequential"
                        />
                        <div
                          class="PrivateRadioButtonIcon-root-5 PrivateRadioButtonIcon-checked-7"
                        >
                          <svg
                            aria-hidden="true"
                            class="MuiSvgIcon-root"
                            focusable="false"
                            viewBox="0 0 24 24"
                          >
                            <path
                              d="M12 2C6.48 2 2 6.48 2 12s4.48 10 10 10 10-4.48 10-10S17.52 2 12 2zm0 18c-4.42 0-8-3.58-8-8s3.58-8 8-8 8 3.58 8 8-3.58 8-8 8z"
                            />
                          </svg>
                          <svg
                            aria-hidden="true"
                            class="MuiSvgIcon-root PrivateRadioButtonIcon-layer-6"
                            focusable="false"
                            viewBox="0 0 24 24"
                          >
                            <path
                              d="M8.465 8.465C9.37 7.56 10.62 7 12 7C14.76 7 17 9.24 17 12C17 13.38 16.44 14.63 15.535 15.535C14.63 16.44 13.38 17 12 17C9.24 17 7 14.76 7 12C7 10.62 7.56 9.37 8.465 8.465Z"
                            />
                          </svg>
                        </div>
                      </span>
                    </span>
                    <span
                      class="MuiTypography-root MuiFormControlLabel-label Mui-disabled MuiTypography-body1"
                    >
                      <span>
                        Sequential - 
                        <span>
                          Decisions impact the future, you can learn from the past. Solving a maze helps to know when / when not to retrace steps.
                        </span>
                      </span>
                    </span>
                  </label>
                </div>
              </fieldset>
              <div
                class="MuiFormControl-root MuiFormControl-fullWidth"
              >
                <label
                  class="MuiFormLabel-root MuiInputLabel-root MuiInputLabel-formControl MuiInputLabel-animated MuiInputLabel-shrink MuiFormLabel-filled"
                  data-shrink="true"
                  for="room-count"
                >
                  Room Count
                </label>
                <div
                  class="MuiInputBase-root MuiInput-root MuiInput-underline MuiInputBase-formControl MuiInput-formControl MuiInputBase-adornedStart"
                >
                  <div
                    class="MuiInputAdornment-root MuiInputAdornment-positionStart"
                  >
                    <span>
                      (5)
                    </span>
                  </div>
                  <input
                    aria-invalid="false"
                    class="MuiInputBase-input MuiInput-input MuiInputBase-inputAdornedStart"
                    id="room-count"
                    name="roomCount"
                    type="number"
                    value="5"
                  />
                </div>
              </div>
              <fieldset
                class="MuiFormControl-root MuiFormControl-fullWidth"
              >
                <legend
                  class="MuiFormLabel-root Mui-disabled"
                >
                  Player
                </legend>
                <p
                  class="MuiFormHelperText-root Mui-disabled"
                >
                  who is playing the game? a person or the lm?
                </p>
                <div
                  class="MuiFormGroup-root"
                  id="game-player"
                  role="radiogroup"
                >
                  <label
                    class="MuiFormControlLabel-root Mui-disabled"
                  >
                    <span
                      aria-disabled="true"
                      class="MuiButtonBase-root MuiIconButton-root PrivateSwitchBase-root-1 MuiRadio-root MuiRadio-colorSecondary PrivateSwitchBase-checked-2 Mui-checked PrivateSwitchBase-disabled-3 Mui-disabled MuiIconButton-colorSecondary Mui-disabled Mui-disabled"
                      tabindex="-1"
                    >
                      <span
                        class="MuiIconButton-label"
                      >
                        <input
                          checked=""
                          class="PrivateSwitchBase-input-4"
                          disabled=""
                          name="player"
                          type="radio"
                          value="person"
                        />
                        <div
                          class="PrivateRadioButtonIcon-root-5 PrivateRadioButtonIcon-checked-7"
                        >
                          <svg
                            aria-hidden="true"
                            class="MuiSvgIcon-root"
                            focusable="false"
                            viewBox="0 0 24 24"
                          >
                            <path
                              d="M12 2C6.48 2 2 6.48 2 12s4.48 10 10 10 10-4.48 10-10S17.52 2 12 2zm0 18c-4.42 0-8-3.58-8-8s3.58-8 8-8 8 3.58 8 8-3.58 8-8 8z"
                            />
                          </svg>
                          <svg
                            aria-hidden="true"
                            class="MuiSvgIcon-root PrivateRadioButtonIcon-layer-6"
                            focusable="false"
                            viewBox="0 0 24 24"
                          >
                            <path
                              d="M8.465 8.465C9.37 7.56 10.62 7 12 7C14.76 7 17 9.24 17 12C17 13.38 16.44 14.63 15.535 15.535C14.63 16.44 13.38 17 12 17C9.24 17 7 14.76 7 12C7 10.62 7.56 9.37 8.465 8.465Z"
                            />
                          </svg>
                        </div>
                      </span>
                    </span>
                    <span
                      class="MuiTypography-root MuiFormControlLabel-label Mui-disabled MuiTypography-body1"
                    >
                      <span>
                        Person - 
                        <span>
                          Human player, keyboard input. For fun, profit, and testing.
                        </span>
                      </span>
                    </span>
                  </label>
                  <label
                    class="MuiFormControlLabel-root Mui-disabled"
                  >
                    <span
                      aria-disabled="true"
                      class="MuiButtonBase-root MuiIconButton-root PrivateSwitchBase-root-1 MuiRadio-root MuiRadio-colorSecondary PrivateSwitchBase-disabled-3 Mui-disabled MuiIconButton-colorSecondary Mui-disabled Mui-disabled"
                      tabindex="-1"
                    >
                      <span
                        class="MuiIconButton-label"
                      >
                        <input
                          class="PrivateSwitchBase-input-4"
                          disabled=""
                          name="player"
                          type="radio"
                          value="lemon"
                        />
                        <div
                          class="PrivateRadioButtonIcon-root-5"
                        >
                          <svg
                            aria-hidden="true"
                            class="MuiSvgIcon-root"
                            focusable="false"
                            viewBox="0 0 24 24"
                          >
                            <path
                              d="M12 2C6.48 2 2 6.48 2 12s4.48 10 10 10 10-4.48 10-10S17.52 2 12 2zm0 18c-4.42 0-8-3.58-8-8s3.58-8 8-8 8 3.58 8 8-3.58 8-8 8z"
                            />
                          </svg>
                          <svg
                            aria-hidden="true"
                            class="MuiSvgIcon-root PrivateRadioButtonIcon-layer-6"
                            focusable="false"
                            viewBox="0 0 24 24"
                          >
                            <path
                              d="M8.465 8.465C9.37 7.56 10.62 7 12 7C14.76 7 17 9.24 17 12C17 13.38 16.44 14.63 15.535 15.535C14.63 16.44 13.38 17 12 17C9.24 17 7 14.76 7 12C7 10.62 7.56 9.37 8.465 8.465Z"
                            />
                          </svg>
                        </div>
                      </span>
                    </span>
                    <span
                      class="MuiTypography-root MuiFormControlLabel-label Mui-disabled MuiTypography-body1"
                    >
                      <span>
                        Lemon - 
                        <span>
                          LM player. The entire point of this whole enterprise.
                        </span>
                      </span>
                    </span>
                  </label>
                </div>
              </fieldset>
            </div>
          </div>
        </div>
      </div>
    </div>
    <div
      class="MuiPaper-root MuiAccordion-root MuiAccordion-rounded MuiPaper-elevation1 MuiPaper-rounded"
    >
      <div
        aria-disabled="false"
        aria-expanded="false"
        class="MuiButtonBase-root MuiAccordionSummary-root"
        role="button"
        tabindex="0"
      >
        <div
          class="MuiAccordionSummary-content"
        >
          Advanced
        </div>
      </div>
      <div
        class="MuiCollapse-root MuiCollapse-hidden"
        style="min-height: 0px;"
      >
        <div
          class="MuiCollapse-wrapper"
        >
          <div
            class="MuiCollapse-wrapperInner"
          >
            <div
              role="region"
            />
          </div>
        </div>
      </div>
    </div>
    <div
      class="MuiPaper-root MuiAccordion-root MuiAccordion-rounded MuiPaper-elevation1 MuiPaper-rounded"
    >
      <div
        aria-disabled="false"
        aria-expanded="false"
        class="MuiButtonBase-root MuiAccordionSummary-root"
        role="button"
        tabindex="0"
      >
        <div
          class="MuiAccordionSummary-content"
        >
          Key Config
        </div>
      </div>
      <div
        class="MuiCollapse-root MuiCollapse-hidden"
        style="min-height: 0px;"
      >
        <div
          class="MuiCollapse-wrapper"
        >
          <div
            class="MuiCollapse-wrapperInner"
          >
            <div
              role="region"
            >
              <dl
                class="keys"
              >
                <dt>
                  Left
                </dt>
                <dt
                  class="key"
                >
                  ←
                </dt>
                <dd
                  class="forward"
                >
                  <div>
                    <em>
                      (Discrete)
                    </em>
                     Turn the agent left.
                  </div>
                  <div
                    disabled=""
                  >
                    <em>
                      (Continuous)
                    </em>
                     Apply force to increase agent count-clockwise velocity.
                  </div>
                </dd>
                <dt>
                  Rifght
                </dt>
                <dt
                  class="key"
                >
                  →
                </dt>
                <dd
                  class="forward"
                >
                  <div>
                    <em>
                      (Discrete)
                    </em>
                     Turn the agent right.
                  </div>
                  <div
                    disabled=""
                  >
                    <em>
                      (Continuous)
                    </em>
                     Apply force to increase agent clockwise velocity.
                  </div>
                </dd>
                <dt>
                  Forward
                </dt>
                <dt
                  class="key"
                >
                  ↑
                </dt>
                <dd
                  class="forward"
                >
                  <div>
                    <em>
                      (Discrete)
                    </em>
                     Move the agent forward.
                  </div>
                  <div
                    disabled=""
                  >
                    <em>
                      (Continuous)
                    </em>
                     Apply force to increase agent velocity.
                  </div>
                </dd>
                <dt
                  disabled=""
                >
                  Backward
                </dt>
                <dt
                  class="key"
                  disabled=""
                >
                  ↓
                </dt>
                <dd
                  disabled=""
                >
                  <em>
                    (Continuous Only)
                  </em>
                   Apply force to decrease agent velocity.
                </dd>
                <dt>
                  Grab
                </dt>
                <dt
                  class="key"
                >
                  G
                </dt>
                <dd>
                  Grab the gold. The agent must be in a room with the gold.
                </dd>
                <dt>
                  Exit
                </dt>
                <dt
                  class="key"
                >
                  E
                </dt>
                <dd>
                  Exit the cave. The agent must have the gold and be in a room with an exit.
                </dd>
                <dt
                  disabled=""
                >
                  Fire
                </dt>
                <dt
                  class="key"
                  disabled=""
                >
                  F
                </dt>
                <dd
                  disabled=""
                >
                  <em>
                    (Multiple Only)
                  </em>
                   Fire an arrow.
                </dd>
                <dt>
                  Noop
                </dt>
                <dt
                  class="key"
                >
                  ␣
                </dt>
                <dd>
                  <em>
                    (Static Only)
                  </em>
                   Take no action for a round.
                </dd>
              </dl>
            </div>
          </div>
        </div>
      </div>
    </div>
    <div
      class="form-actions"
    >
      <button
        class="MuiButtonBase-root MuiButton-root MuiButton-contained MuiButton-containedPrimary"
        tabindex="0"
        type="submit"
      >
        <span
          class="MuiButton-label"
        >
          New Game
        </span>
        <span
          class="MuiTouchRipple-root"
        />
      </button>
    </div>
  </form>
</DocumentFragment>
`;
